{
  "firstName": "Mattias",
  "lastName": "Vahtra",
  "passwordHash": "210C0F7A1A552A03AF8FA11590424D21A71C8D440873E07609D557E439ACF00A",
  "studyProgram": "D",
  "iHaveReadTheRulesOfTheCourse": true
}
